fsm_tb.vcd
$date
Mon Jun  8 04:23:51 2026
$end
$version
Riviera-PRO Version 2025.04.139.9738
$end
$timescale
1 ps
$end

$scope module fsm_tb_top $end
$var reg 1 ! clk $end

$scope module intf $end
$var reg 1 " rst_n $end
$var reg 1 # din $end
$var reg 1 $ detected $end
$var reg 2 % state_o [1:0] $end
$var reg 1 & din $end
$var reg 1 ' detected $end
$var reg 2 ( state_o [1:0] $end
$var reg 1 ) din $end
$var reg 1 * detected $end
$var reg 2 + state_o [1:0] $end
$var reg 1 , rst_n $end
$upscope $end


$scope module dut $end
$var wire 1 - clk $end
$var wire 1 . rst_n $end
$var wire 1 / din $end
$var reg 1 0 detected $end
$var reg 2 1 state_o [1:0] $end
$var reg 2 2 cur_state $end
$var reg 2 3 nxt_state $end
$upscope $end

$upscope $end

$enddefinitions $end
$dumpvars
0!
0"
x#
x$
bx %
0&
x'
bx (
x)
x*
bx +
x,
0-
0.
x/
x0
bx 1
bx 2
bx 3
$end
#5000
1!
1-
b0 2
00
b0 1
0$
b0 %
b0x 3
0,
1&
#6000
1#
1/
b1 3
#10000
0!
0-
#15000
1!
1-
b0 +
0*
1)
b0 (
0'
0&
#16000
0#
0/
b0 3
#20000
0!
0-
#25000
1!
1-
1"
1.
0)
1&
#26000
1#
1/
b1 3
#30000
0!
0-
#35000
1!
1-
b1 2
b1 1
b1 %
1,
1)
0&
#36000
0#
0/
b10 3
#40000
0!
0-
#45000
1!
1-
b10 2
b10 1
b10 %
b0 3
b1 +
0)
b1 (
#50000
0!
0-
#55000
1!
1-
b0 2
b0 1
b0 %
b10 +
b10 (
1&
#56000
1#
1/
b1 3
#60000
0!
0-
#65000
1!
1-
b1 2
b1 1
b1 %
b0 +
1)
b0 (
0&
#66000
0#
0/
b10 3
#70000
0!
0-
#75000
1!
1-
b10 2
b10 1
b10 %
b0 3
b1 +
0)
b1 (
1&
#76000
1#
1/
b11 3
#80000
0!
0-
#85000
1!
1-
b11 2
10
b11 1
1$
b11 %
b1 3
b10 +
1)
b10 (
#90000
0!
0-
#95000
1!
1-
b1 2
00
b1 1
0$
b1 %
b11 +
1*
b11 (
1'
0&
#96000
0#
0/
b10 3
#100000
0!
0-
#105000
1!
1-
b10 2
b10 1
b10 %
b0 3
b1 +
0*
0)
b1 (
0'
1&
#106000
1#
1/
b11 3
#110000
0!
0-
#115000
1!
1-
b11 2
10
b11 1
1$
b11 %
b1 3
b10 +
1)
b10 (
0&
#116000
0#
0/
b10 3
#120000
0!
0-
#125000
1!
1-
b10 2
00
b10 1
0$
b10 %
b0 3
b11 +
1*
0)
b11 (
1'
1&
#126000
1#
1/
b11 3
#130000
0!
0-
#135000
1!
1-
b11 2
10
b11 1
1$
b11 %
b1 3
b10 +
0*
1)
b10 (
0'
#140000
0!
0-
#145000
1!
1-
b1 2
00
b1 1
0$
b1 %
b11 +
1*
b11 (
1'
#150000
0!
0-
#155000
1!
1-
b1 +
0*
b1 (
0'
